{
  "projects": [
    {
      "id": "{projectID}",
      "description": "ProjectName",
      "frontEndHome": "http://localhost:4200/",
      "bibliographyService": {
        "type": "Zotero",
        "options": {
          "groupId": "123456789",
          "authorization": "Bearer abcdefghijklmnop"
        }
      },
      "workService": {
        "type": "Mermeid",
        "options": {
          "url": "http://mermeidinstance.com",
          "collection": "collectionName"
        }
      },
      "providers": {
        "dataporten": {
          "provider": "dataporten",
          "module": "passport-uninett-dataporten",
          "clientID": "{dataporten-client-id}",
          "clientSecret": "{dataporten-client-secret}",
          "callbackURL": "http://localhost:3000/auth/{projectID}/dataporten/callback"
        }
      }
    }
  ],
  "cookieSecret": "replace with secret string",
  "adminUsers": ["userName1 from passport provider", "userName2"],
  "email": {
    "from": "no-reply@projectId.com",
    "nodemailer": {
      "port": 1025,
      "ignoreTLS": true
    }
  },
  "errorLog": "./log/error.log",
  "infoLog": "./log/info.log",
  "elasticsearch": {
    "host": "http://localhost:9200/",
    "httpAuth": "admin:changeme",
    "apiVersion": "5.6"
  }
}
