{
  "name": "EditorialComment",
  "plural": "editorialComments",
  "base": "Comment",
  "idInjection": true,
  "description": "Create through Article",
  "options": {
    "validateUpsert": true
  },
  "mixins": {
    "ArticleComment": {}
  },
  "properties": {},
  "validations": [],
  "relations": {},
  "acls": [
    {
      "accessType": "READ",
      "principalType": "ROLE",
      "principalId": "$everyone",
      "permission": "DENY"
    },
    {
      "accessType": "READ",
      "principalType": "ROLE",
      "principalId": "projectEditor",
      "permission": "ALLOW"
    },
    {
      "accessType": "READ",
      "principalType": "ROLE",
      "principalId": "articleContributor",
      "permission": "ALLOW"
    },
    {
      "accessType": "EXECUTE",
      "principalType": "ROLE",
      "principalId": "articleContributor",
      "permission": "ALLOW",
      "property": [
        "addChild",
        "getChildren"
      ]
    },
    {
      "accessType": "EXECUTE",
      "principalType": "ROLE",
      "principalId": "projectEditor",
      "permission": "ALLOW",
      "property": [
        "addChild",
        "getChildren",
        "destroyBranch"
      ]
    }
  ],
  "methods": {}
}
