{
  "name": "PersonIdentity",
  "base": "UserIdentity",
  "idInjection": true,
  "options": {
    "validateUpsert": true
  },
  "properties": {},
  "validations": [],
  "relations": {
    "user": {
      "type": "belongsTo",
      "model": "Person",
      "foreignKey": "userId"
    }
  },
  "acls": [],
  "methods": {}
}
