{
  "name": "Person",
  "plural": "people",
  "base": "User",
  "idInjection": true,
  "description": "User model",
  "options": {
    "validateUpsert": true
  },
  "hidden": [
    "email",
    "emailVerified",
    "username"
  ],
  "properties": {
    "id": {
      "type": "string",
      "id": true,
      "generated": false,
      "defaultFn": "uuidv4"
    },
    "name": {
      "type": "string",
      "required": true
    }
  },
  "validations": [],
  "relations": {
    "articles": {
      "type": "hasAndBelongsToMany",
      "model": "Article",
      "foreignKey": ""
    },
    "projects": {
      "type": "hasAndBelongsToMany",
      "model": "Project",
      "foreignKey": ""
    },
    "projectRoleMappings": {
      "type": "hasAndBelongsToMany",
      "model": "ProjectRoleMapping",
      "foreignKey": ""
    },
    "identities": {
      "type": "hasMany",
      "model": "PersonIdentity",
      "foreignKey": "userId"
    },
    "credentials": {
      "type": "hasMany",
      "model": "PersonCredential",
      "foreignKey": "userId"
    },
    "accessTokens": {
      "type": "hasMany",
      "model": "PersonAccessToken",
      "foreignKey": "userId"
    },
    "edits": {
      "type": "hasMany",
      "model": "Edit",
      "foreignKey": "personId"
    },
    "publicComments": {
      "type": "hasMany",
      "model": "PublicComment",
      "foreignKey": "personId"
    },
    "editorialComments": {
      "type": "hasMany",
      "model": "EditorialComment",
      "foreignKey": "personId"
    }
  },
  "acls": [
    {
      "accessType": "*",
      "principalType": "ROLE",
      "principalId": "$everyone",
      "permission": "DENY"
    },
    {
      "accessType": "READ",
      "principalType": "ROLE",
      "principalId": "$everyone",
      "permission": "ALLOW"
    },
    {
      "accessType": "EXECUTE",
      "principalType": "ROLE",
      "principalId": "$authenticated",
      "permission": "ALLOW",
      "property": "logout"
    }
  ],
  "methods": {}
}
