{
  "name": "State",
  "base": "PersistedModel",
  "idInjection": true,
  "description": "internal generic model to keep track of project status",
  "indexes": {
    "projectKeyIndex": {
      "keys": {
        "projectId": 1,
        "key": -1
      },
      "options": {
        "unique": true
      }
    }
  },
  "options": {
    "validateUpsert": true
  },
  "properties": {
    "projectId": {
      "type": "string",
      "required": true
    },
    "key": {
      "type": "string",
      "required": true
    },
    "value": {
      "type": "object",
      "required": true
    }
  },
  "validations": [],
  "relations": {},
  "acls": [],
  "methods": {}
}
