{
  "restApiRoot": "/api",
  "host": "0.0.0.0",
  "port": 3000,
  "remoting": {
    "context": false,
    "rest": {
      "handleErrors": false,
      "normalizeHttpPath": false,
      "xml": false
    },
    "json": {
      "strict": false,
      "limit": "1000kb"
    },
    "urlencoded": {
      "extended": true,
      "limit": "200kb"
    },
    "cors": false
  }
}
